Predictive Final
…
Predictive Final

Load and Download the Data

docs <- read_csv(file.path("..", "data", "airbnb_listings_austin_text_docs_booked.csv"))
anno <- read_csv(file.path("..", "data", "airbnb_listings_austin_text_anno.csv.gz"))

Project Code

docs

## # A tibble: 3,000 x 8
##    availability_90...1  ...2 doc_id availability_90...4
##                  <dbl> <dbl>  <dbl>               <dbl>
##  1                   0  5581   5582                   0
##  2                   0  2399   2400                   0
##  3                   0  3746   3747                   0
##  4                   0  3914   3915                   0
##  5                   0  3393   3394                   0
##  6                   0  1904   1905                   0
##  7                   0  5214   5215                   0
##  8                   0  2501   2502                   0
##  9                   0  3408   3409                   0
## 10                   0  3251   3252                   0
## # i 2,990 more rows
## # i 4 more variables: review_scores_rating_5 <dbl>,
## #   review_scores_rating_10 <dbl>, train_id <chr>, text <chr>
…
## # A tibble: 7 x 2
##   review_scores_rating_10 `n()`
##                     <dbl> <int>
## 1                       2     4
## 2                       3     1
## 3                       5     2
## 4                       6    13
## 5                       7    11
## 6                       8   181
## 7                       9  2788

anno

## # A tibble: 2,588,888 x 11
##    doc_id   sid   tid token token_with_ws lemma upos  xpos  feats tid_source
##     <dbl> <dbl> <dbl> <chr> <chr>         <chr> <chr> <chr> <chr>      <dbl>
##  1      1     1     1 3     3             3     X     LS    <NA>           3
##  2      1     1     2 Priv~ Private       priv~ ADJ   JJ    Degr~          3
##  3      1     1     3 Bedr~ Bedrooms      Bedr~ PROPN NNPS  Numb~          0
##  4      1     1     4 ,     ,             ,     PUNCT ,     <NA>           3
##  5      1     1     5 SW    SW            SW    PROPN NNP   Numb~          6
##  6      1     1     6 Aust~ Austin        Aust~ PROPN NNP   Numb~          3
##  7      1     1     7 Conv~ Conveniently  conv~ ADV   RB    <NA>           3
##  8      1     1     8 loca~ located       loca~ VERB  VBN   Tens~          3
##  9      1     1     9 10    10            10    NUM   CD    NumT~         13
## 10      1     1    10 -     -             -     SYM   SYM   <NA>          11
## # i 2,588,878 more rows
## # i 1 more variable: relation <chr>
…
docs <- read_csv(file.path("..", "data", "airbnb_listings_austin_text_docs.csv"))

docs

## # A tibble: 5,835 x 7
##     ...1 doc_id availability_90 review_scores_rating_5
##    <dbl>  <dbl>           <dbl>                  <dbl>
##  1     0      1               1                      4
##  2     1      2               0                      4
##  3     2      3               0                      4
##  4     3      4               0                      4
##  5     4      5               0                      4
##  6     5      6               0                      4
##  7     6      7               1                      4
##  8     7      8               0                      4
##  9     8      9               0                      4
## 10     9     10               0                      4
## # i 5,825 more rows
## # i 3 more variables: review_scores_rating_10 <dbl>, train_id <chr>,
## #   text <chr>
…
anno

## # A tibble: 2,588,888 x 11
##    doc_id   sid   tid token token_with_ws lemma upos  xpos  feats tid_source
##     <dbl> <dbl> <dbl> <chr> <chr>         <chr> <chr> <chr> <chr>      <dbl>
##  1      1     1     1 3     3             3     X     LS    <NA>           3
##  2      1     1     2 Priv~ Private       priv~ ADJ   JJ    Degr~          3
##  3      1     1     3 Bedr~ Bedrooms      Bedr~ PROPN NNPS  Numb~          0
##  4      1     1     4 ,     ,             ,     PUNCT ,     <NA>           3
##  5      1     1     5 SW    SW            SW    PROPN NNP   Numb~          6
##  6      1     1     6 Aust~ Austin        Aust~ PROPN NNP   Numb~          3
##  7      1     1     7 Conv~ Conveniently  conv~ ADV   RB    <NA>           3
##  8      1     1     8 loca~ located       loca~ VERB  VBN   Tens~          3
##  9      1     1     9 10    10            10    NUM   CD    NumT~         13
## 10      1     1    10 -     -             -     SYM   SYM   <NA>          11
## # i 2,588,878 more rows
## # i 1 more variable: relation <chr>

docs

## # A tibble: 5,835 x 7
##     ...1 doc_id availability_90 review_scores_rating_5
##    <dbl>  <dbl>           <dbl>                  <dbl>
##  1     0      1               1                      4
##  2     1      2               0                      4
##  3     2      3               0                      4
##  4     3      4               0                      4
##  5     4      5               0                      4
##  6     5      6               0                      4
##  7     6      7               1                      4
##  8     7      8               0                      4
##  9     8      9               0                      4
## 10     9     10               0                      4
## # i 5,825 more rows
## # i 3 more variables: review_scores_rating_10 <dbl>, train_id <chr>,
## #   text <chr>
…
